Fatty acid,Fraction,Outcome,Direction,Magnitude,Ref_1,Ref_2,Ref_3,Ref_4,Ref_5,Ref_6,Ref_7,Ref_8,Ref_9,Ref_10,Ref_11,Ref_12,Ref_13
Total,ne,C-peptide,harm,weak,,,@Morita2012a,,,,,,,,,,
Total,ne,Si,harm,na,,,,,,,,@Miller2012a,,,,,
Total,ne,FG,harm,na,,,,,,,,,@Dai2015a,,,,
Total,ne,Si,harm,moderate,,,,,,,,,,@Johns2014a,,,
Total,ne,DI,harm,strong,,,,,,,,,,@Johns2014a,,,
Total,ne,igi,harm,na,,,,,,,,,,,,@Salgin2012a,
Total,ne,igi*is,harm,na,,,,,,,,,,,,@Salgin2012a,
Total,ne,t2dm,harm,strong,,,,,,,,,,,,@Salgin2012a,
Total SFA,ce,t2dm,harm,mod,@Wang2003a,,,,,,,,,,,,
Total SFA,emfa,isi,null,null,,,,,@Mahendran2014a,,,,,,,,
Total SFA,emfa,Di(30),null,null,,,,,@Mahendran2014a,,,,,,,,
Total SFA,pl,t2dm,harm,mod,@Wang2003a,@Hodge2007a,,,,,,,,,,,
Total MUFA,pl,t2dm,harm,weak,@Wang2003a,,,,,,,,,,,,
Total MUFA,pl,t2dm,null,null,,@Hodge2007a,,,,,,,,,,,
Total MUFA,emfa,isi,null,null,,,,,@Mahendran2014a,,,,,,,,
Total MUFA,emfa,Di(30),null,null,,,,,@Mahendran2014a,,,,,,,,
Total MUFA,ce,t2dm,null,null,@Wang2003a,,,,,,,,,,,,
Total PUFA,pl,t2dm,null,null,@Wang2003a,,,,,,,,,,,,
Total PUFA,emfa,isi,null,null,,,,,@Mahendran2014a,,,,,,,,
Total PUFA,emfa,Di(30),null,null,,,,,@Mahendran2014a,,,,,,,,
Total PUFA,ce,t2dm,null,null,@Wang2003a,,,,,,,,,,,,
Total n6 PUFA,pl,t2dm,null,null,,@Hodge2007a,,,,,,,,,,,
Total n3 PUFA,pl,t2dm,null,null,,@Hodge2007a,,,,,,,,,,,
15:0,pl,t2dm,benefit,strong,,@Hodge2007a,,,,,,,,,,,
15:0,pl,t2dm,benefit,weak,,,,,,,,,,,@Forouhi2014a,,
12:0,tag,t2dm,harm,confirm,,,,,,@Rhee2011a,,,,,,,
14:0,pl,t2dm,null,null,,,,@Ma2015a,,,,,,,,@Lankinen2015a,
14:0,pl,t2dm,harm,weak,,,,,,,,,,,@Forouhi2014a,,
14:0,tag,t2dm,harm,confirm,,,,,,@Rhee2011a,,,,,,,
14:0,tag,t2dm,null,null,,,,,,,,,,,,@Lankinen2015a,
14:0,ce,t2dm,null,null,,,,,,,,,,,,@Lankinen2015a,
16:0,pl,t2dm,harm,Weak-mod,@Wang2003a,,,@Ma2015a,,,,,,,@Forouhi2014a,,
16:0,pl,t2dm,null,null,,@Hodge2007a,,,,,,,,,,@Lankinen2015a,
16:0,pl,Homa-ir,harm,na,,,,@Ma2015a,,,,,,,,,
16:0,efa,Homa-ir,harm,na,,,,,,,@Kotronen2009a,,,,,,
16:0,emfa,isi,benefit,na,,,,,@Mahendran2014a,,,,,,,,
16:0,emfa,Di(30),null,null,,,,,@Mahendran2014a,,,,,,,,
16:0,ce,t2dm,harm,Weak-mod,@Wang2003a,,,,,,,,,,,,
16:0,ce,t2dm,null,null,,,,,,,,,,,,@Lankinen2015a,
16:0,tag,t2dm,harm,confirm,,,,,,@Rhee2011a,,,,,,,
16:0,tag,t2dm,null,null,,,,,,,,,,,,@Lankinen2015a,
18:0,pl,t2dm,harm,Weak-moderate,@Wang2003a,@Hodge2007a,,@Ma2015a,,,,,,,,,
18:0,pl,Homa-ir,harm,na,,,,@Ma2015a,,,,,,,,,
18:0,emfa,isi,harm,na,,,,,@Mahendran2014a,,,,,,,,
18:0,emfa,Di(30),null,null,,,,,@Mahendran2014a,,,,,,,,
18:0,ce,t2dm,null,null,@Wang2003a,,,,,,,,,,,@Lankinen2015a,
18:0,tag,t2dm,harm,confirm,,,,,,@Rhee2011a,,,,,,,
18:0,tag,t2dm,null,null,,,,,,,,,,,,@Lankinen2015a,
18:0,pl,t2dm,null,null,,,,,,,,,,,@Forouhi2014a,@Lankinen2015a,
20:0,pl,t2dm,benefit,moderate,,,,,,,,,,,@Forouhi2014a,,
20:0,pl,t2dm,null,null,,,,,,,,,,,,@Lankinen2015a,
22:0,pl,t2dm,benefit,weak,,,,,,,,,,,@Forouhi2014a,,
22:0,pl,t2dm,null,null,,,,,,,,,,,,@Lankinen2015a,
24:0,pl,t2dm,benefit,moderate,,,,,,,,,,,@Forouhi2014a,,
24:0,pl,t2dm,null,null,,,,,,,,,,,,@Lankinen2015a,
14:1n-7,tag,t2dm,harm,confirm,,,,,,@Rhee2011a,,,,,,,
16:1n-9,pl,t2dm,null,null,,,,@Ma2015a,,,,,,,,,
16:1n-9,ne,mets,harm,na,,,,,,,,,@Dai2015a,,,,
16:1n-7,ce,t2dm,harm,weak,@Wang2003a,,,,,,,,,,,,
16:1n-7,ce,t2dm,null,null,,,,,,,,,,,,@Lankinen2015a,
16:1n-7,efa,Homa-ir,harm,na,,,,,,,@Kotronen2009a,,,,,,
16:1n-7,emfa,isi,harm,na,,,,,@Mahendran2014a,,,,,,,,
16:1n-7,pl,t2dm,null,null,@Wang2003a,,,@Ma2015a,,,,,,,,@Lankinen2015a,
16:1n-7,pl,t2dm,harm,strong,,@Hodge2007a,,,,,,,,,,,
16:1n-7,tag,t2dm,harm,confirm,,,,,,@Rhee2011a,,,,,,,
16:1n-7,tag,t2dm,null,null,,,,,,,,,,,,@Lankinen2015a,
18:1n-7,pl,t2dm,benefit,Weak-mod,,,,@Ma2015a,,,,,,,,,
18:1n-7,pl,t2dm,null,null,,,,,,,,,,,,@Lankinen2015a,
18:1n-7,emfa,isi,benefit,na,,,,,@Mahendran2014a,,,,,,,,
18:1n-7,emfa,Di(30),harm,na,,,,,@Mahendran2014a,,,,,,,,
18:1n-7,ce,t2dm,null,null,,,,,,,,,,,,@Lankinen2015a,
18:1n-7,tag,t2dm,null,null,,,,,,,,,,,,@Lankinen2015a,
18:1n-9,pl,t2dm,benefit,weak,@Wang2003a,,,,,,,,,,,,
18:1n-9,pl,t2dm,null,null,,@Hodge2007a,,@Ma2015a,,,,,,,,@Lankinen2015a,
18:1n-9,ce,t2dm,null,null,@Wang2003a,,,,,,,,,,,@Lankinen2015a,
18:1n-9,emfa,isi,null,null,,,,,@Mahendran2014a,,,,,,,,
18:1n-9,emfa,Di(30),null,null,,,,,@Mahendran2014a,,,,,,,,
18:1n-9,efa,Homa-ir,harm,na,,,,,,,@Kotronen2009a,,,,,,
18:1n-9,tag,t2dm,harm,confirm,,,,,,@Rhee2011a,,,,,,,
18:1n-9,tag,t2dm,null,null,,,,,,,,,,,,@Lankinen2015a,
18:1,ne,t2dm,harm,na,,,,,,,,,,@Liu2010a,,,
20:1n-9,ne,mets,harm,na,,,,,,,,,@Dai2015a,,,,
20:1n-9,pl,t2dm,null,null,,,,,,,,,,,,@Lankinen2015a,
20:1n-9,tag,t2dm,null,null,,,,,,,,,,,,@Lankinen2015a,
24:1n-9,pl,t2dm,null,null,,,,,,,,,,,,@Lankinen2015a,
18:2n-6,ce,t2dm,benefit,weak,@Wang2003a,,,,,,,,,,,,
18:2n-6,ce,t2dm,null,null,,,,,,,,,,,,@Lankinen2015a,
18:2n-6,pl,t2dm,benefit,Weak-strong,@Wang2003a,@Hodge2007a,,,,,,,,,,,
18:2n-6,pl,t2dm,null,null,,,,,,,,,,,,@Lankinen2015a,
18:2n-6,emfa,isi,null,null,,,,,@Mahendran2014a,,,,,,,,
18:2n-6,emfa,Di(30),benefit,na,,,,,@Mahendran2014a,,,,,,,,
18:2n-6,efa,Homa-ir,benefit,na,,,,,,,@Kotronen2009a,,,,,,
18:2n-6,tag,t2dm,harm,confirm,,,,,,@Rhee2011a,,,,,,,
18:2n-6,tag,t2dm,null,null,,,,,,,,,,,,@Lankinen2015a,
18:2n-6,ne,t2dm,harm,na,,,,,,,,,,@Liu2010a,,,
18:3n-3,pl,t2dm,benefit,weak,@Wang2003a,,,,,,,,,,,,
18:3n-3,pl,t2dm,null,null,,@Hodge2007a,,,,,,,,,,@Lankinen2015a,
18:3n-3,ce,t2dm,null,null,,,,,,,,,,,,@Lankinen2015a,
18:3n-3,tag,t2dm,null,null,,,,,,,,,,,,@Lankinen2015a,
18:3n-6,pl,t2dm,null,null,@Wang2003a,,,,,,,,,,,,
18:3n-6,ce,t2dm,null,null,@Wang2003a,,,,,,,,,,,@Lankinen2015a,
18:3n-6,tag,t2dm,null,null,,,,,,,,,,,,@Lankinen2015a,
18:3,ne,t2dm,harm,ca,,,,,,,,,,@Liu2010a,,,
20:3n-6,ce,t2dm,harm,Weak-mod,@Wang2003a,,,,,,,,,,,@Lankinen2015a,
20:3n-6,emfa,isi,harm,na,,,,,@Mahendran2014a,,,,,,,,
20:3n-6,emfa,Di(30),null,null,,,,,@Mahendran2014a,,,,,,,,
20:3n-6,pl,t2dm,null,null,@Wang2003a,,,,,,,,,,,,
20:3n-6,pl,t2dm,harm,Mod-strong,,@Hodge2007a,,,,,,,,,,@Lankinen2015a,
20:3n-6,tag,t2dm,null,null,,,,,,,,,,,,@Lankinen2015a,
20:4n-6,ce,t2dm,harm,weak,@Wang2003a,,,,,,,,,,,,
20:4n-6,pl,t2dm,null,null,@Wang2003a,@Hodge2007a,,,,,,,,,,@Lankinen2015a,
20:4n-6,emfa,isi,null,null,,,,,@Mahendran2014a,,,,,,,,
20:4n-6,emfa,Di(30),null,null,,,,,@Mahendran2014a,,,,,,,,
20:4n-6,tag,t2dm,benefit,confirm,,,,,,@Rhee2011a,,,,,,,
20:4n-6,ce,t2dm,null,null,,,,,,,,,,,,@Lankinen2015a,
20:4n-6,tag,t2dm,null,null,,,,,,,,,,,,@Lankinen2015a,
20:5n-3,pl,t2dm,null,null,,@Hodge2007a,,,,,,,,,,@Lankinen2015a,
20:5n-3,emfa,isi,null,null,,,,,@Mahendran2014a,,,,,,,,
20:5n-3,emfa,Di(30),null,null,,,,,@Mahendran2014a,,,,,,,,
20:5n-3,tag,t2dm,benefit,confirm,,,,,,@Rhee2011a,,,,,,,
20:5n-3,tag,t2dm,null,null,,,,,,,,,,,,@Lankinen2015a,
20:5n-3,ce,t2dm,null,null,,,,,,,,,,,,@Lankinen2015a,
22:5n-3,pl,t2dm,null,null,,@Hodge2007a,,,,,,,,,,@Lankinen2015a,
22:5n-3,tag,t2dm,null,null,,,,,,,,,,,,@Lankinen2015a,
22:4n-6,emfa,isi,null,null,,,,,@Mahendran2014a,,,,,,,,
22:4n-6,emfa,Di(30),null,null,,,,,@Mahendran2014a,,,,,,,,
22:4n-6,ne,mets,harm,na,,,,,,,,,@Dai2015a,,,,
22:4n-6,pl,t2dm,null,null,,,,,,,,,,,,@Lankinen2015a,
22:6n-3,pl,t2dm,null,null,,@Hodge2007a,,,,,,,,,,@Lankinen2015a,
22:6n-3,emfa,isi,null,null,,,,,@Mahendran2014a,,,,,,,,
22:6n-3,emfa,Di(30),null,null,,,,,@Mahendran2014a,,,,,,,,
22:6n-3,tag,t2dm,benefit,confirm,,,,,,@Rhee2011a,,,,,,,
22:6n-3,tag,t2dm,null,null,,,,,,,,,,,,@Lankinen2015a,
22:6n-3,ce,t2dm,null,null,,,,,,,,,,,,@Lankinen2015a,
22:5n-6,pl,t2dm,null,null,,,,,,,,,,,,@Lankinen2015a,
14:0,pl,isi,harm,mod,,,,,,,,,,,,@Lankinen2015a,
18:0,pl,isi,harm,mod,,,,,,,,,,,,@Lankinen2015a,
Total SFA,pl,isi,harm,strong,,,,,,,,,,,,@Lankinen2015a,
16:1n-7,pl,isi,harm,mod,,,,,,,,,,,,@Lankinen2015a,
20:3n-6,pl,isi,harm,strong,,,,,,,,,,,,@Lankinen2015a,
22:4n-6,pl,isi,harm,mod,,,,,,,,,,,,@Lankinen2015a,
22:5n-6,pl,isi,harm,mod,,,,,,,,,,,,@Lankinen2015a,
18:1n-7,pl,isi,benefit,strong,,,,,,,,,,,,@Lankinen2015a,
20:1n-9,pl,isi,benefit,mod,,,,,,,,,,,,@Lankinen2015a,
24:1n-9,pl,isi,benefit,mod,,,,,,,,,,,,@Lankinen2015a,
20:5n-3,pl,isi,benefit,weak,,,,,,,,,,,,@Lankinen2015a,
22:6n-3,pl,isi,benefit,weak,,,,,,,,,,,,@Lankinen2015a,
Total PUFA,pl,isi,benefit,weak,,,,,,,,,,,,@Lankinen2015a,
16:0,pl,isi,null,null,,,,,,,,,,,,@Lankinen2015a,
20:0,pl,isi,null,null,,,,,,,,,,,,@Lankinen2015a,
22:0,pl,isi,null,null,,,,,,,,,,,,@Lankinen2015a,
24:0,pl,isi,null,null,,,,,,,,,,,,@Lankinen2015a,
18:1n-9,pl,isi,null,null,,,,,,,,,,,,@Lankinen2015a,
Total MUFA,pl,isi,null,null,,,,,,,,,,,,@Lankinen2015a,
18:2n-6,pl,isi,null,null,,,,,,,,,,,,@Lankinen2015a,
18:3n-3,pl,isi,null,null,,,,,,,,,,,,@Lankinen2015a,
20:4n-6,pl,isi,null,null,,,,,,,,,,,,@Lankinen2015a,
22:5n-3,pl,isi,null,null,,,,,,,,,,,,@Lankinen2015a,
16:0,pl,Di(30),harm,weak,,,,,,,,,,,,@Lankinen2015a,
Total SFA,pl,Di(30),harm,mod,,,,,,,,,,,,@Lankinen2015a,
16:1n-7,pl,Di(30),harm,mod,,,,,,,,,,,,@Lankinen2015a,
20:3n-6,pl,Di(30),harm,weak,,,,,,,,,,,,@Lankinen2015a,
18:1n-7,pl,Di(30),benefit,mod,,,,,,,,,,,,@Lankinen2015a,
18:2n-6,pl,Di(30),benefit,mod,,,,,,,,,,,,@Lankinen2015a,
Total PUFA,pl,Di(30),benefit,mod,,,,,,,,,,,,@Lankinen2015a,
14:0,pl,Di(30),null,null,,,,,,,,,,,,@Lankinen2015a,
18:0,pl,Di(30),null,null,,,,,,,,,,,,@Lankinen2015a,
20:0,pl,Di(30),null,null,,,,,,,,,,,,@Lankinen2015a,
22:0,pl,Di(30),null,null,,,,,,,,,,,,@Lankinen2015a,
24:0,pl,Di(30),null,null,,,,,,,,,,,,@Lankinen2015a,
18:1n-9,pl,Di(30),null,null,,,,,,,,,,,,@Lankinen2015a,
20:1n-9,pl,Di(30),null,null,,,,,,,,,,,,@Lankinen2015a,
24:1n-9,pl,Di(30),null,null,,,,,,,,,,,,@Lankinen2015a,
Total MUFA,pl,Di(30),null,null,,,,,,,,,,,,@Lankinen2015a,
18:3n-3,pl,Di(30),null,null,,,,,,,,,,,,@Lankinen2015a,
20:4n-6,pl,Di(30),null,null,,,,,,,,,,,,@Lankinen2015a,
20:5n-3,pl,Di(30),null,null,,,,,,,,,,,,@Lankinen2015a,
22:4n-6,pl,Di(30),null,null,,,,,,,,,,,,@Lankinen2015a,
22:5n-6,pl,Di(30),null,null,,,,,,,,,,,,@Lankinen2015a,
22:6n3,pl,Di(30),null,null,,,,,,,,,,,,@Lankinen2015a,
14:0,ce,isi,harm,mod,,,,,,,,,,,,@Lankinen2015a,
16:1n-7,ce,isi,harm,mod,,,,,,,,,,,,@Lankinen2015a,
18:3n-6,ce,isi,harm,mod,,,,,,,,,,,,@Lankinen2015a,
20:3n-6,ce,isi,harm,strong,,,,,,,,,,,,@Lankinen2015a,
18:1n-7,ce,isi,benefit,strong,,,,,,,,,,,,@Lankinen2015a,
20:5n-3,ce,isi,benefit,weak,,,,,,,,,,,,@Lankinen2015a,
22:6n-3,ce,isi,benefit,weak,,,,,,,,,,,,@Lankinen2015a,
16:0,ce,isi,null,null,,,,,,,,,,,,@Lankinen2015a,
18:0,ce,isi,null,null,,,,,,,,,,,,@Lankinen2015a,
Total SFA,ce,isi,null,null,,,,,,,,,,,,@Lankinen2015a,
18:1n-9,ce,isi,null,null,,,,,,,,,,,,@Lankinen2015a,
Total MUFA,ce,isi,null,null,,,,,,,,,,,,@Lankinen2015a,
18:2n-6,ce,isi,null,null,,,,,,,,,,,,@Lankinen2015a,
18:3n-3,ce,isi,null,null,,,,,,,,,,,,@Lankinen2015a,
20:4n-6,ce,isi,null,null,,,,,,,,,,,,@Lankinen2015a,
Total PUFA,ce,isi,null,null,,,,,,,,,,,,@Lankinen2015a,
14:0,ce,Di(30),harm,mod,,,,,,,,,,,,@Lankinen2015a,
16:0,ce,Di(30),harm,mod,,,,,,,,,,,,@Lankinen2015a,
Total SFA,ce,Di(30),harm,mod,,,,,,,,,,,,@Lankinen2015a,
16:1n-7,ce,Di(30),harm,strong,,,,,,,,,,,,@Lankinen2015a,
Total MUFA,ce,Di(30),harm,mod,,,,,,,,,,,,@Lankinen2015a,
18:3n-6,ce,Di(30),harm,mod,,,,,,,,,,,,@Lankinen2015a,
20:3n-6,ce,Di(30),harm,mod,,,,,,,,,,,,@Lankinen2015a,
20:4n-6,ce,Di(30),harm,weak,,,,,,,,,,,,@Lankinen2015a,
18:1n-7,ce,Di(30),benefit,weak,,,,,,,,,,,,@Lankinen2015a,
18:2n-6,ce,Di(30),benefit,strong,,,,,,,,,,,,@Lankinen2015a,
Total PUFA,ce,Di(30),benefit,strong,,,,,,,,,,,,@Lankinen2015a,
18:0,ce,Di(30),null,null,,,,,,,,,,,,@Lankinen2015a,
18:1n-9,ce,Di(30),null,null,,,,,,,,,,,,@Lankinen2015a,
18:3n-3,ce,Di(30),null,null,,,,,,,,,,,,@Lankinen2015a,
20:5n-3,ce,Di(30),null,null,,,,,,,,,,,,@Lankinen2015a,
22:6n-3,ce,Di(30),null,null,,,,,,,,,,,,@Lankinen2015a,
14:0,tag,isi,harm,strong,,,,,,,,,,,,@Lankinen2015a,
16:0,tag,isi,harm,strong,,,,,,,,,,,,@Lankinen2015a,
18:0,tag,isi,harm,strong,,,,,,,,,,,,@Lankinen2015a,
Total SFA,tag,isi,harm,strong,,,,,,,,,,,,@Lankinen2015a,
18:1n-7,tag,isi,benefit,weak,,,,,,,,,,,,@Lankinen2015a,
18:2n-6,tag,isi,benefit,strong,,,,,,,,,,,,@Lankinen2015a,
20:4n-6,tag,isi,benefit,strong,,,,,,,,,,,,@Lankinen2015a,
20:5n-3,tag,isi,benefit,strong,,,,,,,,,,,,@Lankinen2015a,
22:5n-3,tag,isi,benefit,strong,,,,,,,,,,,,@Lankinen2015a,
22:6n-3,tag,isi,benefit,mod,,,,,,,,,,,,@Lankinen2015a,
Total PUFA,tag,isi,benefit,strong,,,,,,,,,,,,@Lankinen2015a,
16:1n-7,tag,isi,null,null,,,,,,,,,,,,@Lankinen2015a,
18:1n-9,tag,isi,null,null,,,,,,,,,,,,@Lankinen2015a,
20:1n-9,tag,isi,null,null,,,,,,,,,,,,@Lankinen2015a,
Total MUFA,tag,isi,null,null,,,,,,,,,,,,@Lankinen2015a,
18:3n-6,tag,isi,null,null,,,,,,,,,,,,@Lankinen2015a,
18:3n-3,tag,isi,null,null,,,,,,,,,,,,@Lankinen2015a,
20:3n-6,tag,isi,null,null,,,,,,,,,,,,@Lankinen2015a,
14:0,tag,Di(30),harm,weak,,,,,,,,,,,,@Lankinen2015a,
16:0,tag,Di(30),harm,strong,,,,,,,,,,,,@Lankinen2015a,
Total SFA,tag,Di(30),harm,mod,,,,,,,,,,,,@Lankinen2015a,
16:1n-7,tag,Di(30),harm,mod,,,,,,,,,,,,@Lankinen2015a,
18:2n-6,tag,Di(30),benefit,strong,,,,,,,,,,,,@Lankinen2015a,
Total PUFA,tag,Di(30),benefit,mod,,,,,,,,,,,,@Lankinen2015a,
18:0,tag,Di(30),null,null,,,,,,,,,,,,@Lankinen2015a,
18:1n-9,tag,Di(30),null,null,,,,,,,,,,,,@Lankinen2015a,
18:1n-7,tag,Di(30),null,null,,,,,,,,,,,,@Lankinen2015a,
20:1n-9,tag,Di(30),null,null,,,,,,,,,,,,@Lankinen2015a,
Total MUFA,tag,Di(30),null,null,,,,,,,,,,,,@Lankinen2015a,
18:3n-6,tag,Di(30),null,null,,,,,,,,,,,,@Lankinen2015a,
20:3n-6,tag,Di(30),null,null,,,,,,,,,,,,@Lankinen2015a,
20:4n-6,tag,Di(30),null,null,,,,,,,,,,,,@Lankinen2015a,
20:5n-3,tag,Di(30),null,null,,,,,,,,,,,,@Lankinen2015a,
22:5n-3,tag,Di(30),null,null,,,,,,,,,,,,@Lankinen2015a,
22:6n-3,tag,Di(30),null,null,,,,,,,,,,,,@Lankinen2015a,
18:0,emfa,t2dm,harm,weak,,,,,,,,,,,,@Kroger2011a,
24:0,emfa,t2dm,harm,mod,,,,,,,,,,,,@Kroger2011a,
16:1n-7,emfa,t2dm,harm,strong,,,,,,,,,,,,@Kroger2011a,
186:1n-9,emfa,t2dm,harm,strong,,,,,,,,,,,,@Kroger2011a,
18:3n-3,emfa,t2dm,harm,strong,,,,,,,,,,,,@Kroger2011a,
20:3n-6,emfa,t2dm,harm,strong,,,,,,,,,,,,@Kroger2011a,
20:0,emfa,t2dm,benefit,mod,,,,,,,,,,,,@Kroger2011a,
18:2n-6,emfa,t2dm,benefit,mod,,,,,,,,,,,,@Kroger2011a,
14:0,emfa,t2dm,null,null,,,,,,,,,,,,@Kroger2011a,
16:0,emfa,t2dm,null,null,,,,,,,,,,,,@Kroger2011a,
22:0,emfa,t2dm,null,null,,,,,,,,,,,,@Kroger2011a,
Total SFA,emfa,t2dm,null,null,,,,,,,,,,,,@Kroger2011a,
18:1n-7,emfa,t2dm,null,null,,,,,,,,,,,,@Kroger2011a,
18:1n-9,emfa,t2dm,null,null,,,,,,,,,,,,@Kroger2011a,
20:1n-9,emfa,t2dm,null,null,,,,,,,,,,,,@Kroger2011a,
22:1n-9,emfa,t2dm,null,null,,,,,,,,,,,,@Kroger2011a,
24:1n-9,emfa,t2dm,null,null,,,,,,,,,,,,@Kroger2011a,
Total MUFA,emfa,t2dm,null,null,,,,,,,,,,,,@Kroger2011a,
18:3n-3,emfa,t2dm,null,null,,,,,,,,,,,,@Kroger2011a,
20:5n-3,emfa,t2dm,null,null,,,,,,,,,,,,@Kroger2011a,
22:5n-3,emfa,t2dm,null,null,,,,,,,,,,,,@Kroger2011a,
22:6n-3,emfa,t2dm,null,null,,,,,,,,,,,,@Kroger2011a,
Total n3 PUFA,emfa,t2dm,null,null,,,,,,,,,,,,@Kroger2011a,
20:2n-6,emfa,t2dm,null,null,,,,,,,,,,,,@Kroger2011a,
20:4n-6,emfa,t2dm,null,null,,,,,,,,,,,,@Kroger2011a,
22:4n-6,emfa,t2dm,null,null,,,,,,,,,,,,@Kroger2011a,
Total n6 PUFA,emfa,t2dm,null,null,,,,,,,,,,,,@Kroger2011a,
Total PUFA,emfa,t2dm,null,null,,,,,,,,,,,,@Kroger2011a,
Total SFA,efa,t2dm+ifg,null,null,,,,,,,,,,,,,@Laaksonen2002a
Total PUFA,efa,t2dm+ifg,null,null,,,,,,,,,,,,,@Laaksonen2002a
14:0,efa,t2dm+ifg,null,null,,,,,,,,,,,,,@Laaksonen2002a
16:0,efa,t2dm+ifg,null,null,,,,,,,,,,,,,@Laaksonen2002a
18:0,efa,t2dm+ifg,null,null,,,,,,,,,,,,,@Laaksonen2002a
16:n-7,efa,t2dm+ifg,null,null,,,,,,,,,,,,,@Laaksonen2002a
18:1n-9,efa,t2dm+ifg,null,null,,,,,,,,,,,,,@Laaksonen2002a
18:2n-6,efa,t2dm+ifg,benefit,mod,,,,,,,,,,,,,@Laaksonen2002a
18:3n-3,efa,t2dm+ifg,null,null,,,,,,,,,,,,,@Laaksonen2002a
20:3n-6,efa,t2dm+ifg,null,null,,,,,,,,,,,,,@Laaksonen2002a
20:4n-6,efa,t2dm+ifg,null,null,,,,,,,,,,,,,@Laaksonen2002a
20:5n-3,efa,t2dm+ifg,null,null,,,,,,,,,,,,,@Laaksonen2002a
22:5n-3,efa,t2dm+ifg,null,null,,,,,,,,,,,,,@Laaksonen2002a
22:6n-3,efa,t2dm+ifg,null,null,,,,,,,,,,,,,@Laaksonen2002a
